{
  "graphMatrix": [
    [
      0,
      18,
      2,
      0,
      11,
      10,
      0,
      3,
      0
    ],
    [
      18,
      0,
      4,
      18,
      0,
      2,
      0,
      0,
      10
    ],
    [
      2,
      4,
      0,
      1,
      0,
      0,
      0,
      3,
      9
    ],
    [
      0,
      18,
      1,
      0,
      1,
      15,
      11,
      0,
      0
    ],
    [
      11,
      0,
      0,
      1,
      0,
      24,
      4,
      0,
      3
    ],
    [
      10,
      2,
      0,
      15,
      24,
      0,
      15,
      0,
      0
    ],
    [
      0,
      0,
      0,
      11,
      4,
      15,
      0,
      7,
      9
    ],
    [
      3,
      0,
      3,
      0,
      0,
      0,
      7,
      0,
      4
    ],
    [
      0,
      10,
      9,
      0,
      3,
      0,
      9,
      4,
      0
    ]
  ],
  "nodes": [
    {
      "index": 0,
      "x": 672,
      "y": 603,
      "name": "A",
      "fixed": 1,
      "weight": 5,
      "px": 672,
      "py": 603
    },
    {
      "index": 1,
      "x": 856,
      "y": 447,
      "name": "B",
      "fixed": 1,
      "weight": 4,
      "px": 856,
      "py": 447
    },
    {
      "index": 2,
      "x": 854,
      "y": 208,
      "name": "C",
      "fixed": 1,
      "weight": 5,
      "px": 854,
      "py": 208
    },
    {
      "index": 3,
      "x": 361,
      "y": 442,
      "name": "D",
      "fixed": 1,
      "weight": 4,
      "px": 361,
      "py": 442
    },
    {
      "index": 4,
      "x": 71,
      "y": 437,
      "name": "E",
      "fixed": 1,
      "weight": 5,
      "px": 71,
      "py": 437
    },
    {
      "index": 5,
      "x": 329,
      "y": 601,
      "name": "S",
      "fixed": 1,
      "weight": 5,
      "px": 329,
      "py": 601
    },
    {
      "index": 6,
      "px": 72,
      "py": 197,
      "name": "",
      "fixed": 1,
      "x": 72,
      "y": 197,
      "weight": 5
    },
    {
      "index": 7,
      "px": 666,
      "py": 42,
      "name": "",
      "fixed": 1,
      "x": 666,
      "y": 42,
      "weight": 4
    },
    {
      "index": 8,
      "px": 306,
      "py": 43,
      "name": "",
      "fixed": 1,
      "x": 306,
      "y": 43,
      "weight": 5
    }
  ],
  "links": [
    {
      "index": 1,
      "source": 1,
      "target": 2,
      "visible": true,
      "weight": 2,
      "fixed": 0,
      "type": "half-duplex",
      "satelliteChannel": false
    },
    {
      "index": 2,
      "source": 0,
      "target": 5,
      "visible": true,
      "weight": 10,
      "fixed": 0,
      "type": "duplex",
      "satelliteChannel": false
    },
    {
      "index": 3,
      "source": 3,
      "target": 4,
      "visible": true,
      "weight": 1,
      "fixed": 0,
      "type": "duplex",
      "satelliteChannel": false
    },
    {
      "index": 4,
      "source": 2,
      "target": 3,
      "visible": true,
      "weight": 1,
      "fixed": 0,
      "type": "duplex",
      "satelliteChannel": false
    },
    {
      "index": 5,
      "source": 4,
      "target": 5,
      "visible": true,
      "weight": 8,
      "fixed": 0,
      "type": "duplex",
      "satelliteChannel": true
    },
    {
      "index": 6,
      "source": 0,
      "target": 2,
      "visible": true,
      "weight": 2,
      "fixed": 0,
      "type": "duplex",
      "satelliteChannel": false
    },
    {
      "index": 7,
      "source": 6,
      "target": 7,
      "fixed": 1,
      "weight": 7,
      "type": "duplex",
      "satelliteChannel": false
    },
    {
      "index": 8,
      "source": 6,
      "target": 4,
      "fixed": 1,
      "weight": 4,
      "type": "duplex",
      "satelliteChannel": false
    },
    {
      "index": 9,
      "source": 7,
      "target": 2,
      "fixed": 1,
      "weight": 3,
      "type": "duplex",
      "satelliteChannel": false
    },
    {
      "index": 10,
      "source": 8,
      "target": 2,
      "fixed": 1,
      "weight": 9,
      "type": "duplex",
      "satelliteChannel": false
    },
    {
      "index": 11,
      "source": 4,
      "target": 8,
      "fixed": 1,
      "weight": 3,
      "type": "duplex",
      "satelliteChannel": false
    },
    {
      "index": 12,
      "source": 6,
      "target": 8,
      "fixed": 1,
      "weight": 9,
      "type": "duplex",
      "satelliteChannel": false
    },
    {
      "index": 13,
      "source": 8,
      "target": 1,
      "fixed": 1,
      "weight": 10,
      "type": "duplex",
      "satelliteChannel": false
    },
    {
      "index": 14,
      "source": 8,
      "target": 7,
      "fixed": 1,
      "weight": 4,
      "type": "duplex",
      "satelliteChannel": false
    },
    {
      "index": 15,
      "source": 7,
      "target": 0,
      "fixed": 1,
      "weight": 3,
      "type": "duplex",
      "satelliteChannel": false
    },
    {
      "index": 16,
      "source": 6,
      "target": 3,
      "fixed": true,
      "weight": 11,
      "type": "duplex",
      "satelliteChannel": false
    },
    {
      "index": 17,
      "source": 6,
      "target": 5,
      "fixed": true,
      "weight": 15,
      "type": "duplex",
      "satelliteChannel": false
    },
    {
      "index": 18,
      "source": 4,
      "target": 0,
      "fixed": true,
      "weight": 11,
      "type": "duplex",
      "satelliteChannel": false
    },
    {
      "index": 19,
      "source": 5,
      "target": 3,
      "fixed": true,
      "weight": 15,
      "type": "duplex",
      "satelliteChannel": false
    },
    {
      "index": 20,
      "source": 5,
      "target": 1,
      "fixed": true,
      "weight": 2,
      "type": "duplex",
      "satelliteChannel": false
    },
    {
      "index": 21,
      "source": 0,
      "target": 1,
      "fixed": true,
      "weight": 18,
      "type": "duplex",
      "satelliteChannel": false
    },
    {
      "index": 22,
      "source": 1,
      "target": 3,
      "fixed": true,
      "weight": 18,
      "type": "duplex",
      "satelliteChannel": false
    }
  ]
}